,CZdL1x1,CZdL3x3,mZp
0,0.39,0.09,4200.0
1,0.59,0.6900000000000001,1500.0
2,0.29000000000000004,0.39,1100.0
3,0.49,0.49,4700.0
4,0.89,0.19,2300.0
5,0.39,0.49,2200.0
6,0.29000000000000004,0.59,2100.0
7,0.09,0.49,1700.0
8,0.29000000000000004,0.19,4700.0
9,0.19,0.59,1500.0
