x, y
3.9790685089453297, 1.205
3.9790685089453297, 1.13
3.9790685089453297, 1.055
11.976513799178, 1.045
11.976513799178, 0.96
11.976513799178, 0.87
21.87445328156874, 1.15
21.87445328156874, 1.085
21.87445328156874, 1.005
39.95250324016446, 1.105
39.95250324016446, 1.05
39.95250324016446, 0.985
105.35790292027251, 1.2
105.35790292027251, 1.145
105.35790292027251, 1.075
579.192471829145, 1.24
579.192471829145, 1.175
579.192471829145, 1.085