x, y
0.5288461538461539, 1.034476534296029
0.5288461538461539, 1.0200361010830326
0.5288461538461539, 1.0146209386281588
0.5769230769230769, 0.916245487364621
0.5769230769230769, 0.9099277978339351
0.5769230769230769, 0.9018050541516246
0.657051282051282, 0.9839350180505415
0.657051282051282, 0.975812274368231
0.657051282051282, 0.9631768953068592
1.3525641025641026, 0.9676895306859206
1.3525641025641026, 0.9523465703971119
1.3525641025641026, 0.9388086642599278