x, y
0.02575107296137339, 1.1142857142857143
0.02575107296137339, 1.0571428571428572
0.030042918454935622, 0.9226890756302522
0.07725321888412018, 1.1159663865546219
0.07725321888412018, 1.080672268907563
0.07725321888412018, 1.026890756302521
0.15236051502145923, 0.9915966386554622
0.15236051502145923, 0.9159663865546219
0.15236051502145923, 0.8840336134453781
0.5965665236051502, 1.0285714285714285
0.6051502145922747, 0.8672268907563025
0.6072961373390557, 0.773109243697479