x, y
0.0469208211143695, 1.0422222222222222
0.0469208211143695, 1.0244444444444445
0.0469208211143695, 1.01
0.25219941348973607, 0.9433333333333332
0.25219941348973607, 0.9344444444444444
0.25219941348973607, 0.9255555555555555
0.6217008797653959, 1
0.6158357771260997, 0.9788888888888889
0.6158357771260997, 0.9644444444444444
1.401759530791789, 0.9955555555555555
1.401759530791789, 0.9577777777777777
1.401759530791789, 0.9233333333333332