x, y
1.0, 0.9
1.0, 0.8736842105263158
1.0, 0.8552631578947368
1.153674832962138, 1.0210526315789474
1.1469933184855234, 1.0105263157894737
1.1469933184855234, 1.0
1.2538975501113585, 0.9907894736842106
1.2605790645879733, 0.9815789473684211
1.2605790645879733, 0.9736842105263158
1.447661469933185, 0.9750000000000001
1.447661469933185, 0.9657894736842105
1.447661469933185, 0.9526315789473685
2.8841870824053455, 1.05
2.8841870824053455, 1.0394736842105263
2.8841870824053455, 1.0223684210526316