x, y
1, 1.0160714285714285
1, 0.9793650793650793
1, 0.964484126984127
1.1533333333333333, 0.9337301587301587
1.1533333333333333, 0.9228174603174604
1.1533333333333333, 0.9267857142857143
1.2733333333333334, 0.9585317460317461
1.2733333333333334, 0.950595238095238
1.2733333333333334, 0.9376984126984127
1.48, 0.9218253968253969
1.48, 0.9109126984126984
1.48, 0.9158730158730158
3, 1.0547619047619048
3, 1.0478174603174604
3, 1.0289682539682539