x, y
0.990909090909091, 1.0769230769230769
0.990909090909091, 0.8461538461538461
1, 0.7692307692307692
1.2454545454545454, 0.8564102564102564
1.2454545454545454, 0.6820512820512821
1.2454545454545454, 0.5487179487179487
1.6181818181818182, 0.8974358974358974
1.6181818181818182, 0.6923076923076923
1.6181818181818182, 0.558974358974359
2.9727272727272727, 1.0974358974358975
2.9727272727272727, 0.8769230769230769
2.9727272727272727, 0.7128205128205128