#labels: abs_y_gam_minus_y_j1_ATLAS_lower[1] abs_y_gam_minus_y_j1_ATLAS_center[2] abs_y_gam_minus_y_j1_ATLAS_upper[3] tot_scale01[4] tot_scale01_Err[5] tot_scale02[6] tot_scale02_Err[7] tot_scale03[8] tot_scale03_Err[9] tot_scale04[10] tot_scale04_Err[11] tot_scale05[12] tot_scale05_Err[13] tot_scale06[14] tot_scale06_Err[15] tot_scale07[16] tot_scale07_Err[17]
#neval: 500000000
#overflow:lower center upper 0.00000000000E+00 0.00000000000E+00 0.00000000000E+00 0.00000000000E+00 0.00000000000E+00 0.00000000000E+00 0.00000000000E+00 0.00000000000E+00 0.00000000000E+00 0.00000000000E+00 0.00000000000E+00 0.00000000000E+00 0.00000000000E+00 0.00000000000E+00 
0.00000000000E+00 4.00000000000E-01 8.00000000000E-01 1.31973686710E+05 8.78839282509E+00 1.29501700647E+05 8.56023553982E+00 1.46019880533E+05 9.73785871486E+00 1.43272607675E+05 9.48348051401E+00 1.33123523818E+05 8.92218610666E+00 1.20440849474E+05 8.01097553723E+00 1.21483287306E+05 8.13206804238E+00 
8.00000000000E-01 1.20000000000E+00 1.60000000000E+00 6.92085584650E+04 7.43804149264E+00 6.85228928778E+04 7.32203432071E+00 7.65750556217E+04 8.23833507264E+00 7.58101476847E+04 8.10878754739E+00 6.92852767881E+04 7.48376802182E+00 6.31602567523E+04 6.78225989236E+00 6.32267672088E+04 6.82337841761E+00 
1.60000000000E+00 2.00000000000E+00 2.40000000000E+00 2.24730327720E+04 5.47133919823E+00 2.26275815315E+04 5.48674304752E+00 2.48669881073E+04 6.05899925565E+00 2.50360840443E+04 6.07534622446E+00 2.21778340075E+04 5.41874917985E+00 2.05077361611E+04 4.98963874872E+00 2.02373085951E+04 4.94129938593E+00 
2.40000000000E+00 2.80000000000E+00 3.20000000000E+00 5.08878826729E+03 3.54777976450E+00 5.24024888346E+03 3.64642977272E+00 5.63166896884E+03 3.92858339192E+00 5.79889231376E+03 4.03737122663E+00 4.92633198830E+03 3.44065282098E+00 4.64322669228E+03 3.23560018788E+00 4.49478641749E+03 3.13766688989E+00 
3.20000000000E+00 3.60000000000E+00 4.00000000000E+00 8.19165924043E+02 2.16836842147E+00 8.66031586506E+02 2.29344431034E+00 9.06747663923E+02 2.40099848936E+00 9.58568201821E+02 2.53924789276E+00 7.75342534846E+02 2.05197656680E+00 7.47311543881E+02 1.97763967950E+00 7.07303852868E+02 1.87136307282E+00 
4.00000000000E+00 4.30000000000E+00 4.60000000000E+00 1.01427215077E+02 1.25591936603E+00 1.10036832067E+02 1.36091283362E+00 1.12302064759E+02 1.39106457342E+00 1.21828916612E+02 1.50725733390E+00 9.38889230256E+01 1.16389213703E+00 9.25095496224E+01 1.14517088850E+00 8.56311420861E+01 1.06121037318E+00 
#nx: 3
