#labels: abs_y_gam_minus_y_j1_ATLAS_lower[1] abs_y_gam_minus_y_j1_ATLAS_center[2] abs_y_gam_minus_y_j1_ATLAS_upper[3] tot_scale01[4] tot_scale01_Err[5] tot_scale02[6] tot_scale02_Err[7] tot_scale03[8] tot_scale03_Err[9] tot_scale04[10] tot_scale04_Err[11] tot_scale05[12] tot_scale05_Err[13] tot_scale06[14] tot_scale06_Err[15] tot_scale07[16] tot_scale07_Err[17]
#neval: 8130000000
#overflow:lower center upper 0.00000000000E+00 0.00000000000E+00 0.00000000000E+00 0.00000000000E+00 0.00000000000E+00 0.00000000000E+00 0.00000000000E+00 0.00000000000E+00 0.00000000000E+00 0.00000000000E+00 0.00000000000E+00 0.00000000000E+00 0.00000000000E+00 0.00000000000E+00 
0.00000000000E+00 4.00000000000E-01 8.00000000000E-01 1.88788664172E+05 4.15311445643E+02 1.90378912471E+05 4.26245822037E+02 1.85385260137E+05 4.97571929601E+02 1.87687669019E+05 5.22175544516E+02 1.87593639064E+05 3.95734510198E+02 1.87827375291E+05 3.46841511302E+02 1.87373582298E+05 3.39469827484E+02 
8.00000000000E-01 1.20000000000E+00 1.60000000000E+00 1.15567082679E+05 2.81606461738E+02 1.17508671193E+05 3.05538601500E+02 1.13153125467E+05 3.65324198229E+02 1.15510058924E+05 3.63884033710E+02 1.14386638758E+05 2.77229371361E+02 1.15077927917E+05 2.55311555604E+02 1.14137754710E+05 2.47765986808E+02 
1.60000000000E+00 2.00000000000E+00 2.40000000000E+00 5.27264135896E+04 1.77232447630E+02 5.41359466195E+04 1.81156973752E+02 5.11573577748E+04 2.38649959372E+02 5.28434901596E+04 2.37066464033E+02 5.17369872174E+04 1.73985098818E+02 5.23700753075E+04 1.57958776828E+02 5.14718276857E+04 1.54174962317E+02 
2.40000000000E+00 2.80000000000E+00 3.20000000000E+00 1.98008124074E+04 1.23925460504E+02 2.04107008546E+04 1.32318522504E+02 1.86504717271E+04 1.82536389337E+02 1.93114371800E+04 1.88166408579E+02 1.93261100523E+04 1.20464356947E+02 1.96917341658E+04 1.14274715489E+02 1.91978917594E+04 1.11063826025E+02 
3.20000000000E+00 3.60000000000E+00 4.00000000000E+00 6.13150017402E+03 8.64552672770E+01 6.34129250094E+03 9.28254127766E+01 5.73089180653E+03 1.13861454349E+02 5.86036217407E+03 1.22167205804E+02 5.98819887343E+03 8.32257112647E+01 6.14407522646E+03 7.34248301638E+01 5.95370504669E+03 6.99144918469E+01 
4.00000000000E+00 4.30000000000E+00 4.60000000000E+00 1.42642688433E+03 4.75732745153E+01 1.47563297179E+03 4.98643968483E+01 1.40793668903E+03 5.77334573143E+01 1.48109290581E+03 6.14728987970E+01 1.36450859991E+03 4.51886763932E+01 1.38148297898E+03 4.00779031285E+01 1.32147885423E+03 3.89355758970E+01 
#nx: 3
