x, y
0.7517092843843999, 0.9667068743141761
1.8498366094367604, 0.910597587093569
2.3499333430041927, 0.9290059759455325
2.5996390211971647, 0.9347230707602379
2.8007564250270645, 0.9537967880131977
3.049893390767047, 0.959577140870738