x, y
0.7474221408146046, 1.0623034088530376
1.8480969975739034, 1.0075690009752052
2.348513245537753, 1.0056997419624938
2.5984166796172716, 0.9753622296980237
2.7991914313789796, 0.971396626762289
3.0491530304565155, 1.0277637840738973