x, y
0.20033316816619318, 1.1050552694937874
0.6001322446471513, 1.1422367285027137
0.9995789259032879, 1.0730841541836502
1.399700672062093, 1.166666974155712
1.7994148832410013, 1.0403283683825137
2.1996607505768684, 0.9754951840982622
2.5987005775908254, 1.1137348874328312
2.998793732765517, 1.1974128037939826