x, y
0.20049751243781097, 0.9819209039548022
0.6014925373134329, 0.9909604519774011
0.9999170812603649, 1.0180790960451978
1.3983416252072969, 0.9548022598870056
1.796766169154229, 1.0632768361581921
2.200331674958541, 0.9186440677966101
2.5987562189054727, 1.4790960451977402
2.9997512437810947, 1.3254237288135593