x, y
0.24931075285195703, 1.1237158839144636
0.7518453161987798, 1.0785967149044222
1.2513181152744306, 1.084021837550814
1.7523369787878385, 1.160284509357833
2.49772041799589, 1.1408959307637252
6.4994325840490665, 1.2866124234107925