x, y
0.19896507581630998, 1.07617362877951
0.5996373115505169, 1.1254805832279478
0.9988274781575579, 1.0961024497773157
1.3997857651900698, 1.1977225718413067
1.799007474874193, 1.072268680739182
2.198817229504354, 1.0286143587641645
2.5992241389945123, 1.0685193867808995
3.000486469405398, 1.3676121544144477