set xlabel "M_{H^+} = M_{A} (GeV)" font "sans,25"
set xrange[200.0:420.0]
set xtics 50
set mxtics 5
set ylabel "M_{H'},  M_{H_2} (GeV)" font "sans,25"
set yrange[100.0:550.0]
set ytics 100
set mytics 5
set xtics font "sans,18"
set ytics font "sans,18"
set key font "sans,25"
plot "-" with lines lw 3 lc rgb "red"  title "M_{H'}", \
     "-" with lines lw 3 lc rgb "blue" title "M_{H_2}"
   200.00000000000000        532.07806532463519     
   201.00000000000000        531.91746824306904     
   202.00000000000000        531.75430732109987     
   203.00000000000000        531.58855141750655     
   204.00000000000000        531.42016905007040     
   205.00000000000000        531.24912838986745     
   206.00000000000000        531.07539725542051     
   207.00000000000000        530.89894310670763     
   208.00000000000000        530.71973303902189     
   209.00000000000000        530.53773377667915     
   210.00000000000000        530.35291166657021     
   211.00000000000000        530.16523267155094     
   212.00000000000000        529.97466236366768     
   213.00000000000000        529.78116591721346     
   214.00000000000000        529.58470810160748     
   215.00000000000000        529.38525327409695     
   216.00000000000000        529.18276537227257     
   217.00000000000000        528.97720790639380     
   218.00000000000000        528.76854395151850     
   219.00000000000000        528.55673613943134     
   220.00000000000000        528.34174665036358     
   221.00000000000000        528.12353720450028     
   222.00000000000000        527.90206905326670     
   223.00000000000000        527.67730297038827     
   224.00000000000000        527.44919924271733     
   225.00000000000000        527.21771766081883     
   226.00000000000000        526.98281750930846     
   227.00000000000000        526.74445755693523     
   228.00000000000000        526.50259604640087     
   229.00000000000000        526.25719068390708     
   230.00000000000000        526.00819862842400     
   231.00000000000000        525.75557648066808     
   232.00000000000000        525.49928027178396     
   233.00000000000000        525.23926545171798     
   234.00000000000000        524.97548687727397     
   235.00000000000000        524.70789879984318     
   236.00000000000000        524.43645485279512     
   237.00000000000000        524.16110803851927     
   238.00000000000000        523.88181071510758     
   239.00000000000000        523.59851458266337     
   240.00000000000000        523.31117066922673     
   241.00000000000000        523.01972931630166     
   242.00000000000000        522.72414016397295     
   243.00000000000000        522.42435213559838     
   244.00000000000000        522.12031342206171     
   245.00000000000000        521.81197146557179     
   246.00000000000000        521.49927294299187     
   247.00000000000000        521.18216374868268     
   248.00000000000000        520.86058897684359     
   249.00000000000000        520.53449290333185     
   250.00000000000000        520.20381896694414     
   251.00000000000000        519.86850975013954     
   252.00000000000000        519.52850695918414     
   253.00000000000000        519.18375140369767     
   254.00000000000000        518.83418297557898     
   255.00000000000000        518.47974062728838     
   256.00000000000000        518.12036234946379     
   257.00000000000000        517.75598514784451     
   258.00000000000000        517.38654501947838     
   259.00000000000000        517.01197692818539     
   260.00000000000000        516.63221477924799     
   261.00000000000000        516.24719139330068     
   262.00000000000000        515.85683847938787     
   263.00000000000000        515.46108660715652     
   264.00000000000000        515.05986517815199     
   265.00000000000000        514.65310239618054     
   266.00000000000000        514.24072523670316     
   267.00000000000000        513.82265941522041     
   268.00000000000000        513.39882935461071     
   269.00000000000000        512.96915815137675     
   270.00000000000000        512.53356754075878     
   271.00000000000000        512.09197786066727     
   272.00000000000000        511.64430801438562     
   273.00000000000000        511.19047543199417     
   274.00000000000000        510.73039603045976     
   275.00000000000000        510.26398417233696     
   276.00000000000000        509.79115262302054     
   277.00000000000000        509.31181250648871     
   278.00000000000000        508.82587325947094     
   279.00000000000000        508.33324258397374     
   280.00000000000000        507.83382639809122     
   281.00000000000000        507.32752878502595     
   282.00000000000000        506.81425194024058     
   283.00000000000000        506.29389611665675     
   284.00000000000000        505.76635956781274     
   285.00000000000000        505.23153848888848     
   286.00000000000000        504.68932695549915     
   287.00000000000000        504.13961686015472     
   288.00000000000000        503.58229784627747     
   289.00000000000000        503.01725723966217     
   290.00000000000000        502.44437997725822     
   291.00000000000000        501.86354853314629     
   292.00000000000000        501.27464284157429     
   293.00000000000000        500.67754021691007     
   294.00000000000000        500.07211527035969     
   295.00000000000000        499.45823982329239     
   296.00000000000000        498.83578281700238     
   297.00000000000000        498.20461021872899     
   298.00000000000000        497.56458492374577     
   299.00000000000000        496.91556665331689     
   300.00000000000000        496.25741184830792     
   301.00000000000000        495.58997355822476     
   302.00000000000000        494.91310132544038     
   303.00000000000000        494.22664106435411     
   304.00000000000000        493.53043493521176     
   305.00000000000000        492.82432121229834     
   306.00000000000000        492.10813414619668     
   307.00000000000000        491.38170381978352     
   308.00000000000000        490.64485599761616     
   309.00000000000000        489.89741196833728     
   310.00000000000000        489.13918837970192     
   311.00000000000000        488.36999706580389     
   312.00000000000000        487.58964486604918     
   313.00000000000000        486.79793343539450     
   314.00000000000000        485.99465904533383     
   315.00000000000000        485.17961237508035     
   316.00000000000000        484.35257829235235     
   317.00000000000000        483.51333562312823     
   318.00000000000000        482.66165690969069     
   319.00000000000000        481.79730815622969     
   320.00000000000000        480.92004856121980     
   321.00000000000000        480.02963023572926     
   322.00000000000000        479.12579790675318     
   323.00000000000000        478.20828860459534     
   324.00000000000000        477.27683133324507     
   325.00000000000000        476.33114672261615     
   326.00000000000000        475.37094666142150     
   327.00000000000000        474.39593390936176     
   328.00000000000000        473.40580168719617     
   329.00000000000000        472.40023324314814     
   330.00000000000000        471.37890139396791     
   331.00000000000000        470.34146803883340     
   332.00000000000000        469.28758364411544     
   333.00000000000000        468.21688669686239     
   334.00000000000000        467.12900312467099     
   335.00000000000000        466.02354567940381     
   336.00000000000000        464.90011328198426     
   337.00000000000000        463.75829032524865     
   338.00000000000000        462.59764593155381     
   339.00000000000000        461.41773316153120     
   340.00000000000000        460.21808817003387     
   341.00000000000000        458.99822930494167     
   342.00000000000000        457.75765614406646     
   343.00000000000000        456.49584846492581     
   344.00000000000000        455.21226514162686     
   345.00000000000000        453.90634296251250     
   346.00000000000000        452.57749536156336     
   347.00000000000000        451.22511105580827     
   348.00000000000000        449.84855258016557     
   349.00000000000000        448.44715471020493     
   350.00000000000000        447.02022276226268     
   351.00000000000000        445.56703075915658     
   352.00000000000000        444.08681944839878     
   353.00000000000000        442.57879415827898     
   354.00000000000000        441.04212247545627     
   355.00000000000000        439.47593172572215     
   356.00000000000000        437.87930623734610     
   357.00000000000000        436.25128436383409     
   358.00000000000000        434.59085523997851     
   359.00000000000000        432.89695524167922     
   360.00000000000000        431.16846411610248     
   361.00000000000000        429.40420074422224     
   362.00000000000000        427.60291849254963     
   363.00000000000000        425.76330010476914     
   364.00000000000000        423.88395207690718     
   365.00000000000000        421.96339845136691     
   366.00000000000000        420.00007395543986     
   367.00000000000000        417.99231639846289     
   368.00000000000000        415.93835822827941     
   369.00000000000000        413.83631713165306     
   370.00000000000000        411.68418554423317     
   371.00000000000000        409.47981891292176     
   372.00000000000000        407.22092252620109     
   373.00000000000000        404.90503669510650     
   374.00000000000000        402.52952002773748     
   375.00000000000000        400.09153049181100     
   376.00000000000000        397.58800390060520     
   377.00000000000000        395.01562938494408     
   378.00000000000000        392.37082132401912     
   379.00000000000000        389.64968709612089     
   380.00000000000000        386.84798987055063     
   381.00000000000000        383.96110548586705     
   382.00000000000000        380.98397223617093     
   383.00000000000000        377.91103210145479     
   384.00000000000000        374.73616158984851     
   385.00000000000000        371.45258988090478     
   386.00000000000000        368.05280133094629     
   387.00000000000000        364.52841856901739     
   388.00000000000000        360.87006129678673     
   389.00000000000000        357.06717439439547     
   390.00000000000000        353.10781686016406     
   391.00000000000000        348.97840022665014     
   392.00000000000000        344.66336102122483     
   393.00000000000000        340.14474599169915     
   394.00000000000000        335.40168027281629     
   395.00000000000000        330.40967593345511     
   396.00000000000000        325.13971893765392     
   397.00000000000000        319.55704224141522     
   398.00000000000000        313.61944406752860     
   399.00000000000000        307.27492970661149     
   400.00000000000000        300.45831648258968     
   401.00000000000000        293.08619282360036     
   402.00000000000000        285.04915384735085     
   403.00000000000000        276.19929941423845     
   404.00000000000000        266.32896914418086     
   405.00000000000000        255.13196174126887     
   406.00000000000000        242.12600750965461     
   407.00000000000000        226.47670172010291     
   408.00000000000000        206.51306858135837     
   409.00000000000000        177.86406649220160     
   410.00000000000000        115.30797406290884     
e
   200.00000000000000        534.27351649360730     
   201.00000000000000        534.09046402143576     
   202.00000000000000        533.90466794991721     
   203.00000000000000        533.71609795695633     
   204.00000000000000        533.52472342172450     
   205.00000000000000        533.33051341967393     
   206.00000000000000        533.13343671742814     
   207.00000000000000        532.93346176754847     
   208.00000000000000        532.73055670316990     
   209.00000000000000        532.52468933250520     
   210.00000000000000        532.31582713321245     
   211.00000000000000        532.10393724662356     
   212.00000000000000        531.88898647182680     
   213.00000000000000        531.67094125960489     
   214.00000000000000        531.44976770621781     
   215.00000000000000        531.22543154703180     
   216.00000000000000        530.99789814998644     
   217.00000000000000        530.76713250889748     
   218.00000000000000        530.53309923658935     
   219.00000000000000        530.29576255785366     
   220.00000000000000        530.05508630222619     
   221.00000000000000        529.81103389658142     
   222.00000000000000        529.56356835753456     
   223.00000000000000        529.31265228364919     
   224.00000000000000        529.05824784744141     
   225.00000000000000        528.80031678717808     
   226.00000000000000        528.53882039845985     
   227.00000000000000        528.27371952558394     
   228.00000000000000        528.00497455268078     
   229.00000000000000        527.73254539461459     
   230.00000000000000        527.45639148764565     
   231.00000000000000        527.17647177984065     
   232.00000000000000        526.89274472122986     
   233.00000000000000        526.60516825369803     
   234.00000000000000        526.31369980060254     
   235.00000000000000        526.01829625611185     
   236.00000000000000        525.71891397425293     
   237.00000000000000        525.41550875765745     
   238.00000000000000        525.10803584600342     
   239.00000000000000        524.79644990413226     
   240.00000000000000        524.48070500984079     
   241.00000000000000        524.16075464132973     
   242.00000000000000        523.83655166430378     
   243.00000000000000        523.50804831870516     
   244.00000000000000        523.17519620507471     
   245.00000000000000        522.83794627052362     
   246.00000000000000        522.49624879430382     
   247.00000000000000        522.15005337296452     
   248.00000000000000        521.79930890508035     
   249.00000000000000        521.44396357553342     
   250.00000000000000        521.08396483933905     
   251.00000000000000        520.71925940499443     
   252.00000000000000        520.34979321733670     
   253.00000000000000        519.97551143989085     
   254.00000000000000        519.59635843669071     
   255.00000000000000        519.21227775355339     
   256.00000000000000        518.82321209878808     
   257.00000000000000        518.42910332331803     
   258.00000000000000        518.02989240019383     
   259.00000000000000        517.62551940347771     
   260.00000000000000        517.21592348647300     
   261.00000000000000        516.80104285927484     
   262.00000000000000        516.38081476561865     
   263.00000000000000        515.95517545899713     
   264.00000000000000        515.52406017801957     
   265.00000000000000        515.08740312098314     
   266.00000000000000        514.64513741962764     
   267.00000000000000        514.19719511203925     
   268.00000000000000        513.74350711467378     
   269.00000000000000        513.28400319345860     
   270.00000000000000        512.81861193394400     
   271.00000000000000        512.34726071045986     
   272.00000000000000        511.86987565424130     
   273.00000000000000        511.38638162047846     
   274.00000000000000        510.89670215424940     
   275.00000000000000        510.40075945528764     
   276.00000000000000        509.89847434153722     
   277.00000000000000        509.38976621144383     
   278.00000000000000        508.87455300492968     
   279.00000000000000        508.35275116299431     
   280.00000000000000        507.82427558588540     
   281.00000000000000        507.28903958977418     
   282.00000000000000        506.74695486187471     
   283.00000000000000        506.19793141393473     
   284.00000000000000        505.64187753402837     
   285.00000000000000        505.07869973657535     
   286.00000000000000        504.50830271050620     
   287.00000000000000        503.93058926548906     
   288.00000000000000        503.34546027613158     
   289.00000000000000        502.75281462406303     
   290.00000000000000        502.15254913779938     
   291.00000000000000        501.54455853028679     
   292.00000000000000        500.92873533401530     
   293.00000000000000        500.30496983358597     
   294.00000000000000        499.67314999561006     
   295.00000000000000        499.03316139581199     
   296.00000000000000        498.38488714319703     
   297.00000000000000        497.72820780114336     
   298.00000000000000        497.06300130526159     
   299.00000000000000        496.38914287786378     
   300.00000000000000        495.70650493886723     
   301.00000000000000        495.01495701295340     
   302.00000000000000        494.31436563279033     
   303.00000000000000        493.60459423811022     
   304.00000000000000        492.88550307042885     
   305.00000000000000        492.15694906317543     
   306.00000000000000        491.41878572698636     
   307.00000000000000        490.67086302990418     
   308.00000000000000        489.91302727220335     
   309.00000000000000        489.14512095554772     
   310.00000000000000        488.36698264616649     
   311.00000000000000        487.57844683171106     
   312.00000000000000        486.77934377143811     
   313.00000000000000        485.96949933933456     
   314.00000000000000        485.14873485977949     
   315.00000000000000        484.31686693530582     
   316.00000000000000        483.47370726599655     
   317.00000000000000        482.61906246001752     
   318.00000000000000        481.75273383475303     
   319.00000000000000        480.87451720797219     
   320.00000000000000        479.98420267841362     
   321.00000000000000        479.08157439512917     
   322.00000000000000        478.16641031488115     
   323.00000000000000        477.23848194683370     
   324.00000000000000        476.29755408371909     
   325.00000000000000        475.34338451860265     
   326.00000000000000        474.37572374629593     
   327.00000000000000        473.39431464839834     
   328.00000000000000        472.39889216086203     
   329.00000000000000        471.38918292289196     
   330.00000000000000        470.36490490589034     
   331.00000000000000        469.32576702105268     
   332.00000000000000        468.27146870410729     
   333.00000000000000        467.20169947555786     
   334.00000000000000        466.11613847465617     
   335.00000000000000        465.01445396517283     
   336.00000000000000        463.89630281086596     
   337.00000000000000        462.76132991836585     
   338.00000000000000        461.60916764498052     
   339.00000000000000        460.43943516870786     
   340.00000000000000        459.25173781748174     
   341.00000000000000        458.04566635440818     
   342.00000000000000        456.82079621543238     
   343.00000000000000        455.57668669553971     
   344.00000000000000        454.31288007920887     
   345.00000000000000        453.02890071041270     
   346.00000000000000        451.72425399698562     
   347.00000000000000        450.39842534364931     
   348.00000000000000        449.05087900739034     
   349.00000000000000        447.68105686822526     
   350.00000000000000        446.28837710763054     
   351.00000000000000        444.87223278608394     
   352.00000000000000        443.43199031020850     
   353.00000000000000        441.96698777893903     
   354.00000000000000        440.47653319692267     
   355.00000000000000        438.95990254198239     
   356.00000000000000        437.41633767191399     
   357.00000000000000        435.84504405410433     
   358.00000000000000        434.24518829942338     
   359.00000000000000        432.61589547951820     
   360.00000000000000        430.95624620396649     
   361.00000000000000        429.26527343067903     
   362.00000000000000        427.54195897940019     
   363.00000000000000        425.78522971406670     
   364.00000000000000        423.99395335503971     
   365.00000000000000        422.16693387671427     
   366.00000000000000        420.30290643957682     
   367.00000000000000        418.40053179825810     
   368.00000000000000        416.45839011830060     
   369.00000000000000        414.47497412395546     
   370.00000000000000        412.44868148703233     
   371.00000000000000        410.37780635223669     
   372.00000000000000        408.26052987705594     
   373.00000000000000        406.09490964347481     
   374.00000000000000        403.87886777383875     
   375.00000000000000        401.61017755306489     
   376.00000000000000        399.28644832288643     
   377.00000000000000        396.90510836932594     
   378.00000000000000        394.46338547009628     
   379.00000000000000        391.95828470151542     
   380.00000000000000        389.38656302136133     
   381.00000000000000        386.74470004043866     
   382.00000000000000        384.02886426555170     
   383.00000000000000        381.23487393220825     
   384.00000000000000        378.35815133612823     
   385.00000000000000        375.39366930412791     
   386.00000000000000        372.33588809747232     
   387.00000000000000        369.17868058704278     
   388.00000000000000        365.91524294132790     
   389.00000000000000        362.53798727095563     
   390.00000000000000        359.03841159900628     
   391.00000000000000        355.40694106048181     
   392.00000000000000        351.63273220773033     
   393.00000000000000        347.70342945595064     
   394.00000000000000        343.60485865173689     
   395.00000000000000        339.32063687261439     
   396.00000000000000        334.83166887987994     
   397.00000000000000        330.11548752855788     
   398.00000000000000        325.14537514563455     
   399.00000000000000        319.88917064365427     
   400.00000000000000        314.30761432237460     
   401.00000000000000        308.35199275459365     
   402.00000000000000        301.96068812219630     
   403.00000000000000        295.05394432976397     
   404.00000000000000        287.52559260742186     
   405.00000000000000        279.22929568461313     
   406.00000000000000        269.95422280915062     
   407.00000000000000        259.37866409265666     
   408.00000000000000        246.97391673287612     
   409.00000000000000        231.80862586069779     
   410.00000000000000        214.36361950702627     
e
pause mouse any "Press any key or button to exit"
