x, y
33.25510940344591, 1.0457142857142856
33.25510940344591, 1.0114285714285713
33.25510940344591, 0.9771428571428571
53.781342200990856, 1.137142857142857
53.781342200990856, 1.1142857142857143
53.781342200990856, 1.1028571428571428
76.46866079728514, 0.897142857142857
76.46866079728514, 0.8742857142857142
76.46866079728514, 0.8628571428571428
245.75606698559042, 1.0457142857142856
245.75606698559042, 0.9999999999999999
245.75606698559042, 0.9428571428571428