CZdL1x1,CZdL3x3,CZuL1x1,CZuL3x3,CZuR1x1,CZuR3x3,cotH,mZp,CLDATABG,dominant-poolDATABG,dominant-pool-tagDATABG,ATLAS_8_LLJETDATABG,ATLAS_8_GAMMADATABG,ATLAS_8_4LDATABG,ATLAS_8_JETSDATABG,ATLAS_8_LMETJETDATABG,ATLAS_8_L1L2METDATABG,ATLAS_8_LL_GAMMADATABG,ATLAS_8_GAMMA_METDATABG,ATLAS_8_HMDYDATABG,ATLAS_8_3LDATABG,ATLAS_8_LLMETDATABG,CMS_8_LMETJETDATABG,CMS_8_LLJETDATABG,CMS_8_JETSDATABG,CMS_8_3LDATABG,CMS_8_L1L2METDATABG,LHCB_8_LJETDATABG,LHCB_8_LLJETDATABG,CLSMBG,dominant-poolSMBG,dominant-pool-tagSMBG,ATLAS_8_GAMMASMBG,ATLAS_8_4LSMBG,ATLAS_8_JETSSMBG,ATLAS_8_LMETJETSMBG,ATLAS_8_LLJETSMBG,ATLAS_8_LL_GAMMASMBG,ATLAS_8_GAMMA_METSMBG,ATLAS_8_HMDYSMBG,ATLAS_8_L1L2METSMBG,ATLAS_8_3LSMBG,ATLAS_8_LLMETSMBG,CMS_8_L1L2METSMBG,CMS_8_LMETJETSMBG,CLEXP,dominant-poolEXP,dominant-pool-tagEXP,ATLAS_8_GAMMAEXP,ATLAS_8_4LEXP,ATLAS_8_JETSEXP,ATLAS_8_LMETJETEXP,ATLAS_8_LLJETEXP,ATLAS_8_LL_GAMMAEXP,ATLAS_8_GAMMA_METEXP,ATLAS_8_HMDYEXP,ATLAS_8_L1L2METEXP,ATLAS_8_3LEXP,ATLAS_8_LLMETEXP,CMS_8_L1L2METEXP,CMS_8_LMETJETEXP,CLHLEXP,dominant-poolHLEXP,dominant-pool-tagHLEXP,ATLAS_8_GAMMAHLEXP,ATLAS_8_4LHLEXP,ATLAS_8_JETSHLEXP,ATLAS_8_LMETJETHLEXP,ATLAS_8_LLJETHLEXP,ATLAS_8_LL_GAMMAHLEXP,ATLAS_8_GAMMA_METHLEXP,ATLAS_8_HMDYHLEXP,ATLAS_8_L1L2METHLEXP,ATLAS_8_3LHLEXP,ATLAS_8_LLMETHLEXP,CMS_8_L1L2METHLEXP,CMS_8_LMETJETHLEXP
0.35406746031746034,-0.35406746031746034,0.35406746031746034,-0.35406746031746034,0.35406746031746034,-0.35406746031746034,1.5,1000.0,1.0,ATLAS_8_LMETJET,/ATLAS_2015_I1397637/d01-x01-y01,,,,,,,,,,,,,,,,,,,1.0,CMS_8_L1L2MET,/CMS_2017_I1467451/d01-x01-y01,,,,,,,,,,,,,,1.0,CMS_8_L1L2MET,/CMS_2017_I1467451/d01-x01-y01,,,,,,,,,,,,,,1.0,CMS_8_L1L2MET,/CMS_2017_I1467451/d01-x01-y01,,,,,,,,,,,,,
0.35406746031746034,-0.35406746031746034,0.35406746031746034,-0.35406746031746034,0.35406746031746034,-0.35406746031746034,1.5,5000.0,0.24824150083047036,ATLAS_8_LLJET,"/ATLAS_2015_I1408516:LMODE=EL/d02-x01-y01,/ATLAS_2015_I1408516:LMODE=EL/d03-x01-y01,/ATLAS_2015_I1408516:LMODE=EL/d04-x01-y01",,,,,,,,,,,,,,,,,,,0.44535719662215256,ATLAS_8_LLJET,"/ATLAS_2015_I1408516:LMODE=EL/d02-x01-y01,/ATLAS_2015_I1408516:LMODE=EL/d03-x01-y01,/ATLAS_2015_I1408516:LMODE=EL/d04-x01-y01",,,,,,,,,,,,,,0.18868981991400646,ATLAS_8_LLJET,"/ATLAS_2015_I1408516:LMODE=EL/d02-x01-y01,/ATLAS_2015_I1408516:LMODE=EL/d03-x01-y01,/ATLAS_2015_I1408516:LMODE=EL/d04-x01-y01",,,,,,,,,,,,,,0.9999467712838799,ATLAS_8_LLJET,"/ATLAS_2015_I1408516:LMODE=EL/d02-x01-y01,/ATLAS_2015_I1408516:LMODE=EL/d03-x01-y01,/ATLAS_2015_I1408516:LMODE=EL/d04-x01-y01",,,,,,,,,,,,,
1.062202380952381,-1.062202380952381,1.062202380952381,-1.062202380952381,1.062202380952381,-1.062202380952381,4.5,1000.0,1.0,ATLAS_8_JETS,"/ATLAS_2017_I1604271/d07-x01-y01,/ATLAS_2017_I1604271/d08-x01-y01,/ATLAS_2017_I1604271/d09-x01-y01,/ATLAS_2017_I1604271/d10-x01-y01,/ATLAS_2017_I1604271/d11-x01-y01,/ATLAS_2017_I1604271/d12-x01-y01",,,,,,,,,,,,,,,,,,,1.0,ATLAS_8_LMETJET,/ATLAS_2015_I1397637/d01-x01-y01,,,,,,,,,,,,,,1.0,ATLAS_8_LMETJET,/ATLAS_2015_I1397637/d01-x01-y01,,,,,,,,,,,,,,1.0,ATLAS_8_LMETJET,/ATLAS_2015_I1397637/d01-x01-y01,,,,,,,,,,,,,
1.062202380952381,-1.062202380952381,1.062202380952381,-1.062202380952381,1.062202380952381,-1.062202380952381,4.5,5000.0,0.8994391163804485,CMS_8_JETS,/CMS_2016_I1487277/d01-x01-y01,,,,,,,,,,,,,,,,,,,0.8499916709651866,ATLAS_8_LMETJET,/ATLAS_2017_I1517194/d91-x01-y01,,,,,,,,,,,,,,0.7218098612798484,ATLAS_8_LMETJET,/ATLAS_2015_I1397637/d01-x01-y01,,,,,,,,,,,,,,1.0,ATLAS_8_LMETJET,/ATLAS_2015_I1397637/d01-x01-y01,,,,,,,,,,,,,
